[
  {
    "id": 1,
    "label": "1",
    "level": 0,
    "nodeAttributes": {},
    "children": [2, 3, 4, 5, 6]
  },
  {
    "id": 2,
    "label": "2",
    "level": 1,
    "nodeAttributes": {},
    "children": [7]
  },
  {
    "id": 3,
    "label": "3",
    "level": 2,
    "nodeAttributes": {},
    "children": [8]
  },
  {
    "id": 4,
    "label": "4",
    "level": 3,
    "nodeAttributes": {},
    "children": []
  },
  {
    "id": 5,
    "label": "5",
    "level": 4,
    "nodeAttributes": {},
    "children": []
  },
  {
    "id": 6,
    "label": "6",
    "level": 5,
    "nodeAttributes": {},
    "children": [7]
  },
  {
    "id": 7,
    "label": "7",
    "level": 6,
    "nodeAttributes": {},
    "children": [9]
  },
  {
    "id": 8,
    "label": "8",
    "level": 7,
    "nodeAttributes": {},
    "children": [9, 10]
  },
  {
    "id": 9,
    "label": "9",
    "level": 8,
    "nodeAttributes": {},
    "children": []
  },
  {
    "id": 10,
    "label": "10",
    "level": 9,
    "nodeAttributes": {},
    "children": []
  }
]